{
    "dataset": {
        "general": {
            "backgroundColor": "string",
            "borderColor": "string",
            "borderWidth": "number",
            "label": "string",
            "weight": "number"
        },
        "bar": {
            "barPercentage": "number",
            "categoryPercentage": "number",
            "barThickness": "number"
        },
        "line": {
            "fill": "string",
            "pointBackgroundColor": "string",
            "borderCapStyle": "string",
            "cubicInterpolationMode": ["default", "monotone"],
            "pointRadius": "number",
            "pointStyle": ["circle", "cross", "crossRot", "dash", "line", "rect", "rectRounded", "rectRot", "star", "triangle"],
            "lineTension": "number"
        }
    },
    "options": {
        "pie": {
            "cutoutPercentage": "number",
            "rotation": "number",
            "circumference": "number"
        },
        "general": {
            "scales": {
                "xAxes": {
                    "stacked": false
                },
                "yAxes": {
                    "stacked": false
                }
            }
        }
    }
}